Revision=8
MenuName=M0+_KL26
MenuComment=ARM Cortex 32-bit/M0+ Core/128KB Flash/16KB RAM/
MCUID=
CURRENTDEVICE=M0+_KL26
Hardware=FRDM-KL26Z


MODULE:INIT
ModuleComment=This is the absolute minimum initialization needed./It shows you how to blink an LED/using a Delay loop with the ARM Core SysTick Timer on the FRDM-KL25Z board/TESTED in CW v10.5 and IAR v6.70.3 12JAN2014./
1. Includes
#include "MKL26Z4.h"                         // KL26 M0+ register definitions
2. Defines
#define Overflow1    (SysTick->CTRL&SysTick_CTRL_COUNTFLAG_Msk)  // used by MCU_Delay()
#define Pot          0x0B                    // Potentiometer is on A/D 0 Channel 11
#define nSW1         (GPIOC_PDIR&(1<<8))     // Switch 1, negative logic (0=pressed, 1=not pressed)
#define nSW2         (GPIOC_PDIR&(1<<9))     // Switch 2, negative logic (0=pressed, 1=not pressed)
3. Global Constants
4. Global Variables
long adcin;                                  // adcin will store ADC results
5. Function Headers
void MCU_Init(void);                         // initializes MCU for Freedom Board
void MCU_Delay(long delay);                  // delay in multiples of 1ms

//---------------------------------------------------------------------
void RGB(int Red,int Green,int Blue);        // RGB-LED Control: 1=on, 0=off, for each of the 3 colors
long ADC_Read(int chan);                     // Analog-to-Digital Converter byte read: enter channel to read
6. Main
MCU_Init();                                  // MCU Initialization; has to be done prior to anything else
RGB(0,0,0);                                  // Start with all LEDs off
for(;;)                                      // forever loop 
  { 
   RGB(1,0,0);                               // Turn Red LED On
   MCU_Delay(100);                           // Delay 100ms
   RGB(0,0,0);                               // Turn Red LED Off
   MCU_Delay(100);                           // Delay 100ms
  } 
7. Function Bodies
void MCU_Init(void) 
{
// Crucial                       
__asm("CPSID i");                            // Disable interrupts

//Disable Watchdog
SIM_COPC=0x00;                               // Disable COP watchdog

//System Registers 
SIM_CLKDIV1 = 0x00;                          // Set Busclk to /1, Busclk=20,971,520Hz
SIM_SOPT2=0x05000000;                        // TPM Input Clock, UART0 Clock is MCGFLLCLK 
SIM_SCGC5|=SIM_SCGC5_PORTA_MASK;             // Enable PortA clock
SIM_SCGC5|=SIM_SCGC5_PORTB_MASK;             // Enable PortB clock (1 GPIO)
SIM_SCGC5|=SIM_SCGC5_PORTC_MASK;             // Enable PortC clock
SIM_SCGC5|=SIM_SCGC5_PORTD_MASK;             // Enable PortD clock (2 GPIO)
SIM_SCGC5|=SIM_SCGC5_PORTE_MASK;             // Enable PortE clock
SIM_SCGC6|=SIM_SCGC6_PIT_MASK;               // Enable PIT module
SIM_SCGC6|=SIM_SCGC6_TPM1_MASK;              // Enable TPM2 module 
SIM_SCGC6|=SIM_SCGC6_ADC0_MASK;              // Enable ADC module
SIM_SCGC4|=SIM_SCGC4_UART0_MASK;             // Enable UART0 module  
SIM_SCGC4|=SIM_SCGC4_CMP_MASK;               // Enable CMP0 module  
SIM_SCGC6|=SIM_SCGC6_DAC0_MASK;              // Enable DAC0 module
SIM_SCGC4|=SIM_SCGC4_I2C0_MASK;              // Enable I2C0 Module
SIM_SCGC5|=SIM_SCGC5_TSI_MASK;               // Enable TSI Module
SIM_SCGC7|=SIM_SCGC7_DMA_MASK;               // Enable DMA Module
SIM_SCGC6|=SIM_SCGC6_DMAMUX_MASK;            // Enable DMAMUX module

// System clock initialization
MCG_C1=0x04;                                 // FEI mode, internal clock 32KHz
MCG_C2=0x80;                                 // LOC reset enable, slow ref clock select

// System Tick Init
SysTick->CTRL=0;                             // Disable the SysTick Timer
SysTick->LOAD=20972;                         // Busclk/1=32.768KHz*640=20971520Hz, Period=1ms/(1/20971520Hz)=20972
SysTick->VAL=0;                              // Clear the current counter value to 0
SysTick->CTRL=(SysTick_CTRL_ENABLE_Msk
             |SysTick_CTRL_CLKSOURCE_Msk);   // Enable SYS TICK timer and set clock source to processor clock (core clock) 


// ADC Init
ADC0_CFG2=0x10;                              // Long sample time, ADCxxB channels selected 
ADC0_CFG1=0x40;                              // mode 8-bit(0x40), 10-bit(0x48), 12-bit(0x44), busclk/4 = 5.24MHz
ADC0_SC2=0x00;                               // DMA disabled, VREH & VREF pins selected
ADC0_SC3=0x00;                               // Single Conversion, Continuous Converstion is (0x08)
ADC0_SC1A=0x0B;                              // Set to ADC0 channel 11, if Continous Converstion mode selected, ADC0_SC3 MUST BE WRITTEN TO LAST

// DAC1 Init
DAC0_SR=0x02;                                // DAC pointer is 0
DAC0_C0=0xC0;                                // DAC1 Enabled, VDDA is DAC1 ref voltage
DAC0_C1=0x00;                                // No DMA, Buffer read pointer disabled

// Modulo Timer Init
PIT_MCR=0x00;                                // MDIS = 0,  enables timer
PIT_LDVAL1=20972;                            // PIT Period=1ms,  busclk=32.768KHz*640=20971520Hz, Period=1ms/(1/20971520Hz)=20971.5 
PIT_TCTRL1=0x0001;                           // Enable PIT1 polling

// Timer2 Init
TPM1_SC=0x00;                                // busclk/1=47.68ns per count; buzzer on=0x08, off=0x00
TPM1_C0SC=0x28;                              // edge-aligned PWM
TPM1_MOD=20970-1;                            // 1kHz by default
TPM1_C0V=20970>>1;                           // half of the above to produce 50% duty cycle PWM 

// I2C Init
I2C0_F=0x11;                                 // I2C Baudrate=20971520Hz/(1*104)=201kbps
I2C0_C1|=I2C_C1_IICEN_MASK;                  // I2C on

// GPIO Init
PORTC_PCR2=PORT_PCR_MUX(0);                  // Set Pin C2 to ADC0_SE11 function
PORTA_PCR12=PORT_PCR_MUX(3);                 // Set Pin A12 to alt TPM1 CH0 function
PORTA_PCR1=PORT_PCR_MUX(2);                  // Set Pin A1 to alt UART0_RX function
PORTA_PCR2=PORT_PCR_MUX(2);                  // Set Pin A2 to alt UART0_TX function
PORTE_PCR30=PORT_PCR_MUX(0);                 // Set Pin E30 to alt CMP0_IN4 function-DEFAULT STATE
PORTE_PCR24=PORT_PCR_MUX(5);                 // Set Pin E24 to alt I2C0_SCL function
PORTE_PCR25=PORT_PCR_MUX(5);                 // Set Pin E25 to alt I2C0_SDA function
PORTB_PCR16=PORT_PCR_MUX(0);                 // Set PTB16 as TSI Channel 9
PORTB_PCR17=PORT_PCR_MUX(0);                 // Set PTB17 as TSI Channel 10
PORTC_PCR8=PORT_PCR_MUX(1)|0x03;             // SW1 is now a GPIO, with pullup enabled (negative logic)(External Shield Brd)
PORTC_PCR9=PORT_PCR_MUX(1)|0x03;             // SW2 is now a GPIO, with pullup enabled (negative logic)(External Shield Brd)
PORTA_PCR14=PORT_PCR_MUX(1)|0x03;            // ACCEL INT1 is now a GPIO, with pullup enabled
PORTE_PCR29=PORT_PCR_MUX(1);                 // Set Pin E29 to GPIO function
PORTE_PCR31=PORT_PCR_MUX(1);                 // Set Pin E31 to GPIO function
PORTD_PCR5=PORT_PCR_MUX(1);                  // Set Pin D5 to GPIO function
GPIOE_PDDR|=(1<<29);                         // Red LED, Negative Logic (0=on, 1=off)
GPIOE_PDDR|=(1<<31);                         // Green LED, Negative Logic (0=on, 1=off)
GPIOD_PDDR|=(1<<5);                          // Blue LED, Negative Logic (0=on, 1=off)
}
//---------------------------------------------------------------------
void MCU_Delay (long delay)                  // Delay in multiples of 100us (e.g. use 10000 for 1 second)
{long delw; for (delw=0;delw<delay;delw++) {while (!Overflow1);}}
//---------------------------------------------------------------------
void RGB(int Red,int Green,int Blue)         // RGB-LED Control: 1=on, 0=off, for each of the 3 colors
{
if (Red   ==1) GPIOE_PCOR|=(1<<29); else GPIOE_PSOR|=(1<<29);
if (Green ==1) GPIOE_PCOR|=(1<<31); else GPIOE_PSOR|=(1<<31);
if (Blue  ==1) GPIOD_PCOR|=(1<<5);  else GPIOD_PSOR|=(1<<5);
}
//---------------------------------------------------------------------
long ADC_Read(int chan)                      // Analog-to-Digital Converter byte read: enter channel to read
{ADC0_SC1A=chan; while (!(ADC0_SC1A&ADC_SC1_COCO_MASK)); return ADC0_RA;}
8. Interrupt Bodies
ENDMODULE


MODULE:I2C
ModuleComment=I2C Routine for communicating to the FRDM-KL25Z board's accelerometer (U7)./It will blink green if the board is moved, and blink red if the board is tapped./TESTED in CW v10.5 and IAR v6.6 on 27JAN2014./
1. Includes
2. Defines
#define IIC_Address  0x1D                    // 0x1C if SA0=0, 0x1D if SA0=1
#define INT1         (GPIOA_PDIR&(1<<14))    // INT1 Interrupt Pin from MMA8451
3. Global Constants
4. Global Variables
signed short Xs,Ys,Zs;
int delw,Xraw,Yraw,Zraw;                     
int Xmin,Ymin,Zmin,Xmax,Ymax,Zmax,i,IIC[20];
int X12,Y12,Z12,X14,Y14,Z14,RMS,timeout;
5. Function Headers
int IIC_Start(void);
int IIC_Stop(void);
int IIC_RepeatStart(void);
void IIC_Delay(void);
int IIC_CycleWrite(int bout);
int IIC_CycleRead(int ack,int *Result);
int IIC_RegWrite(int SlaveAddress,int Reg,int Val);
int IIC_RegRead(int SlaveAddress,int Reg,int *Result);
int IIC_RegReadN(int SlaveAddress,int Reg,int N,int *array);
void Accel_Read(void);
void Accel_Init(void);
6. Main
MCU_Init();
Accel_Init();
RGB(0,0,0);                                  // Start with RGB LED Off
for(;;)
  { 
   // Synchronize to every 2ms (500 samples/s)
  while(INT1);
  Accel_Read();
  RMS=Xs*Xs+Ys*Ys+Zs*Zs;
  if (RMS>10000)
    {
    //Shock 
    for (i=0;i<10;i++) {RGB(1,0,0); MCU_Delay(50); RGB(0,0,0); MCU_Delay(50);} // RED blink for 2s
    }
  else if (RMS>4500)
    {
    //Motion
    for (i=0;i<10;i++) {RGB(0,1,0); MCU_Delay(50); RGB(0,0,0); MCU_Delay(50);} // GREEN blink for 2s
    }
  else
    {
    //Idle
    RGB(0,0,0);                  // default OFF; no motion
    }
  }
7. Function Bodies

// IIC FUNCTIONS (MASTER) ///////////////////////////////////////////
//-------------------------------------------------------------------
int IIC_Start(void)        {I2C0_C1|=I2C_C1_MST_MASK;   timeout=0; while ((!(I2C0_S&I2C_S_BUSY_MASK))&&(timeout<1000)) timeout++; if (timeout>=1000) return 0x01; else return 0;} // Wait until BUSY=1
int IIC_Stop(void)         {I2C0_C1&=~I2C_C1_MST_MASK;  timeout=0; while (((I2C0_S&I2C_S_BUSY_MASK))&&(timeout<1000))  timeout++; if (timeout>=1000) return 0x02; else return 0;} // Wait until BUSY=0
int IIC_RepeatStart(void)  {I2C0_C1|=I2C_C1_RSTA_MASK;  timeout=0; while ((!(I2C0_S&I2C_S_BUSY_MASK))&&(timeout<1000)) timeout++; if (timeout>=1000) return 0x04; else return 0;} // Wait until BUSY=1
void IIC_Delay(void)       {int IICd; for (IICd=0;IICd<100;IICd++);}
//-------------------------------------------------------------------
int IIC_CycleWrite(int bout)   
{
int reserr;
reserr=0;
timeout=0; while ((!(I2C0_S&I2C_S_TCF_MASK))&&(timeout<1000)) timeout++; if (timeout>=1000) reserr|=0x08; 
I2C0_D=bout; 
timeout=0; while ((!(I2C0_S&I2C_S_IICIF_MASK))&&(timeout<1000)) timeout++; if (timeout>=1000) reserr|=0x10; 
I2C0_S|=I2C_S_IICIF_MASK; 
if (I2C0_S&I2C_S_RXAK_MASK) reserr|=0x20;
return reserr;
}
//-------------------------------------------------------------------
int IIC_CycleRead(int ack,int *Result)          
{
int reserr,bread;
reserr=0;
timeout=0; while ((!(I2C0_S&I2C_S_TCF_MASK))&&(timeout<1000)) timeout++; if (timeout>=1000) reserr|=0x20;
I2C0_C1&=~I2C_C1_TX_MASK;
if (ack==1) {(I2C0_C1|=I2C_C1_TXAK_MASK);} else {(I2C0_C1&=~I2C_C1_TXAK_MASK);}
bread=I2C0_D; 
timeout=0; while ((!(I2C0_S&I2C_S_IICIF_MASK))&&(timeout<1000)) timeout++; if (timeout>=1000) reserr|=0x40; 
I2C0_S|=I2C_S_IICIF_MASK;
*Result=bread;
return reserr;
}
//...................................................................
int IIC_RegWrite(int SlaveAddress,int Reg,int Val)
{
I2C0_C1|=I2C_C1_TX_MASK;                     // Transmit Mode
IIC_Start();                                 // Send Start
IIC_CycleWrite(SlaveAddress*2);              // Send IIC "Write" Address
IIC_CycleWrite(Reg);                         // Send Register
IIC_CycleWrite(Val);                         // Send Value
IIC_Stop();                                  // Send Stop
return 0;
}
//-------------------------------------------------------------------
int IIC_RegRead(int SlaveAddress,int Reg,int *Result)
{
int res,err;
err=0;
I2C0_C1|=I2C_C1_TX_MASK;                     // Transmit Mode
err|=IIC_Start();                            // Send Start
err|=IIC_CycleWrite(SlaveAddress*2);         // Send IIC "Write" Address
err|=IIC_CycleWrite(Reg);                    // Send Register
err|=IIC_RepeatStart();                      // Send Repeat Start
err|=IIC_CycleWrite(SlaveAddress*2+1);       // Send IIC "Read" Address
err|=IIC_CycleRead(1,&res);                  // *** Dummy read: reads "IIC_ReadAddress" value ***
err|=IIC_CycleRead(1,&res);                  // Read Register Value
err|=IIC_Stop();                             // Send Stop
*Result=res;
return err;
}
//-------------------------------------------------------------------
void IIC_RegWriteN(int SlaveAddress,int reg1,int N,int *array)
{
I2C0_C1|=I2C_C1_TX_MASK;                     // Transmit Mode
IIC_Start();                                 // Send Start
IIC_CycleWrite(SlaveAddress*2);              // Send IIC "Write" Address
IIC_CycleWrite(reg1);                        // Send Register
while (N>0) {IIC_CycleWrite(*array); array++; N--;}  // Send N Values
IIC_Stop();                                  // Send Stop
}
//-------------------------------------------------------------------
int IIC_RegReadN(int SlaveAddress,int Reg,int N,int *array)
{
int res,err;
err=0;
I2C0_C1|=I2C_C1_TX_MASK;                     // Transmit Mode
err|=IIC_Start();                            // Send Start
err|=IIC_CycleWrite(SlaveAddress*2);         // Send IIC "Write" Address
err|=IIC_CycleWrite(Reg);                    // Send Register
err|=IIC_RepeatStart();                      // Send Repeat Start
err|=IIC_CycleWrite(SlaveAddress*2+1);       // Send IIC "Read" Address
err|=IIC_CycleRead(0,&res);                  // *** Dummy read: reads "IIC_ReadAddress" value ***
while (N>1) {err|=IIC_CycleRead(0,&res); *array=res; array++; N--;} // Read N-1 Register Values
err|=IIC_CycleRead(1,&res);                  // Read Register Value
*array=res;
err|=IIC_Stop();                             // Send Stop
return err;
}
//-------------------------------------------------------------------
void Accel_Read(void)
{
IIC_RegReadN(IIC_Address,0x00,7,&IIC[0]); 
X14=((((IIC[1]<<8)|IIC[2])>>2)+0x2000)&0x3FFF; Xraw=(int)(X14>>6);
Y14=((((IIC[3]<<8)|IIC[4])>>2)+0x2000)&0x3FFF; Yraw=(int)(Y14>>6);
Z14=((((IIC[5]<<8)|IIC[6])>>2)+0x2000)&0x3FFF; Zraw=(int)(Z14>>6);
if (Xraw<Xmin) Xmin=Xraw;
if (Yraw<Ymin) Ymin=Yraw;
if (Zraw<Zmin) Zmin=Zraw;
if (Xraw>Xmax) Xmax=Xraw;
if (Yraw>Ymax) Ymax=Yraw;
if (Zraw>Zmax) Zmax=Zraw;  
Xs=Xraw-0x80; Ys=Yraw-0x80; Zs=Zraw-0x80;
}
//-------------------------------------------------------------------
void Accel_Init(void)
{
IIC_RegWrite(IIC_Address,0x2B,0x40);         // *** RESET DEVICE!!! ***
MCU_Delay(250);
IIC_RegWrite(IIC_Address,0x2A,0x00);         // *** PUT IN STANDBY BEFORE CHANGING REGISTER VALUES ***
IIC_RegWrite(IIC_Address,0x0E,0x00);         // 0x02=8g, 0x00=2g
IIC_RegWrite(IIC_Address,0x2C,0x01);         // make interrupts open drain
IIC_RegWrite(IIC_Address,0x2D,0x01);         // DRDY interrupt enable (mapped to INT1 by default)
IIC_RegWrite(IIC_Address,0x2E,0x01);         // map to INT1 (FRDM-KL25 Board)
IIC_RegWrite(IIC_Address,0x2A,0x01);         // go! 
}
//-------------------------------------------------------------------
8. Interrupt Bodies
ENDMODULE


MODULE:UART0
ModuleComment=Simple use of UART0 on the FRDM-KL25Z board. Use Device Mgr to find the COMx port/to communicate with a terminal program with a BR=115200,8-bit,No Par,1 SB,No Flow. Press a/key on the Keyboard and the RED LED lights and the terminal outputs the ASCII character on the/terminal. Tested on a FRDM-KL25Z board using in CW v10.5 and IAR v6.6 on 01OCT2013./
1. Includes
2. Defines
3. Global Constants
4. Global Variables
int cin;
5. Function Headers
//---------------------------------------------------------------------
void SCI_Init(void);                         // initializes the serial port
void SCI_CharOut(int data);                  // sends out a character
void SCI_NibbOut(int data);                  // sends out a nibble (hex value)
void SCI_ByteOut(int data);                  // sends out a byte (hex value)
void SCI_TextOut(char *data);                // sends out a string
int  SCI_CharIn(void);                       // reads a character
int  SCI_ByteIn(void);                       // reads two characters and interprets them as a byte (hex)
void SCI_CRLF(void);                         // send a carriage return + line feed
6. Main
MCU_Init();                                  // MCU Initialization; has to be done prior to anything else
SCI_Init();                                  // also initialize the SCI 
RGB(0,0,0);
for(;;)                                      // forever loop 
  {
  cin=SCI_CharIn();                          // read a character from the SCI (probably from your PC)
  RGB(1,0,0);                                // Flash RED LED when key is pressed
  MCU_Delay(5); 
  RGB(0,0,0);                                
  if (cin=='!')                              // if the character is a '!',
    SCI_TextOut("KL25 Sample UART0 Code");   // then send out some text,
  else                                       // otherwise,
    {
    SCI_CharOut(cin);                        // show the character,
    SCI_CharOut('=');                        // and also,
    SCI_ByteOut(cin);                        // the ASCII value in hex
    }
  SCI_CRLF();                                // go to the next line                   
  } 
7. Function Bodies
// SCI FUNCTIONS //////////////////////////////////////////////////////
//---------------------------------------------------------------------
void SCI_Init(void)          {UART0_C2=0x00; UART0_C4=0x0E; UART0_BDH=0x00; UART0_BDL=0x0D; UART0_C1=0x00; UART0_S2=0x00; UART0_C3=0x00; UART0_C2=0x0C;}   // 20.97MHz/14/13=115,200 baud (actually 115,228, HEX 0x0D, OSR=14, HEX 0x0E)
//---------------------------------------------------------------------
void SCI_CharOut(int data)   {while ((UART0_S1&UART0_S1_TDRE_MASK)==0); UART0_D=data;}
//---------------------------------------------------------------------
void SCI_NibbOut(int data)   {if (data>0x09) SCI_CharOut(data+0x37); else SCI_CharOut(data+0x30);}
//---------------------------------------------------------------------
void SCI_ByteOut(int data)   {SCI_NibbOut(data>>4); SCI_NibbOut(data&0x0F);}
//---------------------------------------------------------------------
void SCI_TextOut(char *data) {while (*data!=0x00) {SCI_CharOut(*data); data++;}}
//---------------------------------------------------------------------
int SCI_CharIn(void)         {if (UART0_S1&0x1F) UART0_S1=0x1F; while ((UART0_S1&UART0_S1_RDRF_MASK)==0); return UART0_D;}  
//---------------------------------------------------------------------
int SCI_ByteIn(void)         {int h,l; h=SCI_CharIn()-48; if (h>9) h-=7; l=SCI_CharIn()-48; if (l>9) l-=7; return (h&15)*16+(l&15);}
//---------------------------------------------------------------------
void SCI_CRLF(void)          {SCI_CharOut(0x0D); SCI_CharOut(0x0A);}
8. Interrupt Bodies
ENDMODULE


MODULE:A/D
ModuleComment=The RGB LED on the board will blink each color in reference/to how much a POT, connected to J10-10, is/turned CCW or CW.Tested on a FRDM-KL25Z board/using in CW v10.5 and IAR v6.6 on 01OCT2013./
1. Includes
2. Defines
3. Global Constants
4. Global Variables
5. Function Headers
6. Main
MCU_Init();
for(;;)
  { 
   adcin=ADC_Read(Pot);                      // Read ADC 0 Channel 11 from POT  
   MCU_Delay(adcin);                         // Delay time is A/D value  
   RGB(1,0,0);                               // Turn on Red LED
   adcin=ADC_Read(Pot);                      // Read ADC 0 Channel 11 from POT    
   MCU_Delay(adcin);                         // Delay time is A/D value
   RGB(0,1,0);                               // Turn on Green LED
   adcin=ADC_Read(Pot);                      // Read ADC 0 Channel 11 from POT    
   MCU_Delay(adcin);                         // Delay time is A/D value
   RGB(0,0,1);                               // Turn on Blue LED
  }
7. Function Bodies
8. Interrupt Bodies
ENDMODULE


MODULE:DAC
ModuleComment=The DAC0_OUT is on pin J10-11 on the FRDM-KL25Z Board./The RED LED lights for 1.0V output for 5 sec, the GREEN LED lights for 2.0V output for 5 sec,/then followed by a 0V output, No LEDs light, for 5 sec./Tested on a FRDM-KL25Z board using in CW v10.5 and IAR v6.6 on 02OCT2013./
1. Includes
2. Defines
3. Global Constants
4. Global Variables
int mode;
5. Function Headers
6. Main
MCU_Init();
RGB(0,0,0);                                  // Start with all LEDs off
for (;;)
    {
    DAC0_DAT0H=0x04;
    DAC0_DAT0L=0xD9;                         // Vout=Vin x (1+DATA[0:11])/4096 = 3.3V x(1+1253)/4096 = 1.00V
    RGB(1,0,0);                              // turn Red LED On
    MCU_Delay(5000);                         // Delay 5 sec
    DAC0_DAT0H=0x09;
    DAC0_DAT0L=0xB3;                         // Vout=Vin x (1+DATA[0:11])/4096 = 3.3V x(1+2506)/4096 = 2.00V
    RGB(0,1,0);                              // turn Green LED On
    MCU_Delay(5000);                         // Delay 5 sec
    DAC0_DAT0H=0x00;
    DAC0_DAT0L=0x00;                         // Vout=Vin x (1+DATA[0:11])/4096 = 3.3V x 0 = 0V
    RGB(0,0,0);                              // turn LEDs off
    MCU_Delay(5000);                         // Delay 5 sec
    } 
7. Function Bodies
8. Interrupt Bodies
ENDMODULE


MODULE:ANALOG_COMP
ModuleComment=The Analog Comparator uses a POT connected to Pins J10-11 on the FRDM-KL25Z Board./Turn the POT fully CCW and the RED LED will turn ON indicating the CMP0 output is high./Turn the POT fully CW and the GREEN LED will turn ON indicating the CMP0 output is low./Tested on a FRDM-KL25Z board using in CW v10.5 and IAR v6.6 on 01OCT2013./
1. Includes
2. Defines
3. Global Constants
4. Global Variables
5. Function Headers
6. Main
MCU_Init();                
RGB(0,0,0);                                  // Start with all LEDs off
CMP0_CR1=0x00;                               // Comparator Disabled
CMP0_CR0=0x00;                               // Filter disabled, Hyst ctrl is Level 0 = 5mV
CMP0_FPR=0x00;                               // Filter disabled
CMP0_MUXCR=0x27;                             // PSEL is IN4, MSEL is 6-Bbit DAC REF
CMP0_DACCR=0xE0;                             // DAC Enable, DAC Vin2in is VDD, DAC0 is 32 DACO=(Vin/64)*(VOSEL[5:0]+1)=1.65V
CMP0_CR1=0x01;                               // Continuous Mode, SE=0, WE=0, CMP ouput pin disabled, Comapator Enabled
for(;;)
  { 
  if ((CMP0_SCR&CMP_SCR_COUT_MASK)==1)       // Check comparator output COUT
  {RGB(1,0,0);}                              // Turn on RED LED if COUT is high
   
  if ((CMP0_SCR&CMP_SCR_COUT_MASK)==0)       // Check comparator output COUT
  {RGB(0,1,0);}                              // Turn on GREEN LED if COUT is low
  }   
7. Function Bodies
8. Interrupt Bodies
ENDMODULE


MODULE:TPM_PWM
ModuleComment=Two PWMs are output on TPM1_CH0, PTA12, J1-8 on the FRDM-KL25Z Board./A 1KHz square wave is indicated by the RED LED,/a 440Hz square wave is indicated by the GREEN LED, then followed by a 1 sec pause./Tested on a FRDM-KL25Z Board using in CW v10.5 and IAR v6.6 on 01OCT2013./
1. Includes
2. Defines
3. Global Constants
4. Global Variables
5. Function Headers
6. Main
MCU_Init();
for (;;)
   {
    RGB(1,0,0);                              // turn Red LED ON
    TPM1_SC=0x08;                            // busclk/1=47.68ns per count; buzzer on=0x08, off=0x00
    TPM1_C0SC=0x28;                          // edge-aligned PWM
    TPM1_MOD=20970-1;                        // 1kHz Freq
    TPM1_C0V=20970>>1;                       // half of the above to produce 50% duty cycle PWM 
    MCU_Delay(1000);                         // Delay 1 sec
    RGB(0,1,0);                              // turn Green LED ON
    TPM1_MOD=47662-1;                        // 440Hz Freq
    TPM1_C0V=47662>>1;                       // half of the above to produce 50% duty cycle PWM 
    MCU_Delay(1000);                         // Delay 1 sec
    RGB(0,0,0);                              // turn OFF LED
    TPM1_SC=0x00;                            // busclk/1=47.68ns per count; buzzer on=0x08, off=0x00
    MCU_Delay(1000);                         // Delay 1 sec 
   } 
7. Function Bodies
8. Interrupt Bodies
ENDMODULE


MODULE:PMC
ModuleComment=This flashes the GREEN LED at 1 sec intervals. When the voltage drops below the/Low Voltage Warning Threshold, the RED LED flashes every 50ms. Apply a variable/VDD to pin J9-8, and GND to pin J9-14 on a FRDM-KL25Z Board. Lower the supply voltage/until desired trip point is reached. Tested with CW v10.5 and IAR v6.6 on 15OCT2013./ 
1. Includes
2. Defines
3. Global Constants
4. Global Variables
5. Function Headers
6. Main
MCU_Init();                                  // MCU Initialization; has to be done prior to anything else
RGB(0,0,0);                                  // Start with all LEDs off

// Low Voltage Detection
PMC_LVDSC1=0x10;                             // Low Voltage Detect Reset Enable
                                             // Low Trip Point Select 1.54V to 1.66V
                                             // Low Voltage Detect-Use Polling
// Low Voltage Warning
PMC_LVDSC2=0x03;                             // Low Voltage Warning Trip Point Select 
                                             // Low Voltage Warning-Use Polling
                                             // 0x00 Low Trip Point 1.74V to 1.86V
                                             // 0x01 Mid 1 Trip Point 1.84V to 1.96V
                                             // 0x02 Mid 2 Trip Point 1.94V to 2.06V
                                             // 0x03 High Trip Point 2.04V to 2.16V

PMC_LVDSC2|=PMC_LVDSC2_LVWACK_MASK;          // Clear Low Voltage Warning Flag before 
                                             // checking for Low Voltage Warning Condition
                                             

for(;;)                                      // Forever Loop 
 {                                           // Status LED, VDD Supply is above Low Voltage Warning Trip Points
   RGB(0,1,0);                               // Turn ON GREEN LED 
   MCU_Delay(1000);                          // Delay 1 sec
   RGB(0,0,0);                               // Turn OFF GREEN LED 
   MCU_Delay(1000);                          // Delay 1 sec 
   
   if (PMC_LVDSC2&PMC_LVDSC2_LVWF_MASK)      // Did the supply voltage fall into selected range?
   {
    while(1)                                 // If yes, than the Low Voltage Warning Flag is set
      {                                      // Stay in this forever loop.
       RGB(1,0,0);                           // Turn ON RED LED 
       MCU_Delay(50);                        // Delay 50ms
       RGB(0,0,0);                           // Turn OFF RED LED 
       MCU_Delay(50);                        // Delay 50ms 
      } 
   }
 }

7. Function Bodies
8. Interrupt Bodies
ENDMODULE

MODULE:TSI
ModuleComment=The sets up the Touch Sensing Input Module (TSI). LED turns green when slider pad is touched,/and turns RED when released. Tested on a FRDM-KL25Z board/using in CW v10.5 and IAR v6.6 on 29JAN2014./
1. Includes
2. Defines
3. Global Constants
4. Global Variables
long touch,TouchThreshold,i;                 // touch variables
5. Function Headers
6. Main
MCU_Init();                                  // MCU Initialization; has to be done prior to anything else
i=0;                                         // reset TSI touch threshold counter to 0
TSI0_GENCS |= (  TSI_GENCS_MODE(0)           // Set to TSI Cap Sense (non-noise detection) 
               | TSI_GENCS_REFCHRG(4)        // Reference osc charge/discharge current is 8uA
               | TSI_GENCS_DVOLT(0)          // Osc voltage rails set to 1.03V, Vp=1.33V, Vm=0.30V
               | TSI_GENCS_EXTCHRG(7)        // External electrode osc charge/discharge current is 64uA 
               | TSI_GENCS_PS(4)             // Electrode osc prescaler is div/16
               | TSI_GENCS_NSCN(11)          // Number of scans for each external electrode is 18 times/electrode 
              );

TSI0_GENCS |= TSI_GENCS_TSIEN_MASK;          // Enable TSI module
 
RGB(0,0,0);                                  // Start with all RGB LEDs off

for(;;)                                      // forever loop 
 { 
   TSI0_DATA |= TSI_DATA_TSICH(10);          // Select the TSI Channel 10 to be scanned
   TSI0_DATA |= TSI_DATA_SWTS_MASK;          // Start a software trigger to scan selected electrode(s)  
   while (!(TSI0_GENCS&TSI_GENCS_EOSF_MASK));// Wait for electrode scan to complete 
   touch=(TSI0_DATA&TSI_DATA_TSICNT_MASK);   // Read data from TSI0_Data register
   TSI0_GENCS |= TSI_GENCS_EOSF_MASK;        // Clear End of Scan Flag
   
   if (i<100)                                // Collect only 100 values for baseline
   {
     TouchThreshold = touch+50;              // Set Touch Threshold to 50 counts greater than baseline value
     i++;                                    // increment touch threshold counter
   }
   if (touch<TouchThreshold) RGB(1,0,0);     // Turn Red LED On when touched
   if (touch>TouchThreshold) RGB(0,1,0);     // Turn Green LED On when released
 } 
7. Function Bodies
8. Interrupt Bodies
ENDMODULE

MODULE:BOARD_TEST
ModuleComment=The RGB LED on the board will blink RED, GREEN, BLUE in/sequence at 1 sec rate. Tested on a FRDM-KL25Z board/using in CW v10.5 and IAR v6.6 on 01OCT2013./
1. Includes
2. Defines
3. Global Constants
4. Global Variables
5. Function Headers
6. Main
MCU_Init();                                  // MCU Initialization; has to be done prior to anything else
RGB(0,0,0);                                  // Start with all LEDs off

for(;;)                                      // forever loop 
  {
   RGB(1,0,0);                               // Turn of RED LED 
   MCU_Delay(1000);                          // Delay 1 sec
   RGB(0,1,0);                               // Turn of GREEN LED 
   MCU_Delay(1000);                          // Delay 1 sec 
   RGB(0,0,1);                               // Turn of BLUE LED 
   MCU_Delay(1000);                          // Delay 1 sec 
  } 

7. Function Bodies
8. Interrupt Bodies
ENDMODULE


MODULE:PIT_POLLING
ModuleComment=This flashes the RED LED at 100ms using the PIT Timer./Uses the polling method as a delay loop on/the FRDM-KL25Z board. Tested with CW v10.5 and IAR v6.7.03 on 17FEB2014./ 
1. Includes
2. Defines
3. Global Constants
4. Global Variables
5. Function Headers
void PIT_Delay (long pit_delay);
6. Main
MCU_Init();                                  // MCU Initialization; has to be done prior to anything else
RGB(0,0,0);                                  // Start with all LEDs off

for(;;)                                      // forever loop 
  { 
   RGB(1,0,0);                               // Turn Red LED On
   PIT_Delay(100);                           // Delay 100ms
   RGB(0,0,0);                               // Turn Red LED Off
   PIT_Delay(100);                           // Delay 100ms
  } 

7. Function Bodies

void PIT_Delay (long pit_delay)                  // Delay in multiples of 1ms (e.g. use 1000 for 1 second)
{long pit_i; for (pit_i=0;pit_i<pit_delay;pit_i++) {while (!PIT_TFLG1); PIT_TFLG1=1;}}
8. Interrupt Bodies
ENDMODULE


MODULE:PIT_INTERRUPT
ModuleComment=This flashes the GREEN LED at 100ms using the PIT Timer./Uses the interrupt method as a delay loop on/the FRDM-KL25Z board. Tested with CW v10.5 and IAR v6.6 on 10OCT2013./ 
1. Includes
2. Defines
#define PIT_irq      22                      // PIT irq is the Vector#-16 = 38-16=22
3. Global Constants
4. Global Variables
5. Function Headers
6. Main

///////////////////////////////////////////////
// IF USING IAR:                             // 
// Add additional code located in vectors.c  //
// #undef  VECTOR_038                        //
// #define VECTOR_038 PIT_IRQHandler         //         
//                                           //
// Add additional code located in vectors.h  //
// void PIT_IRQHandler (void);               //
///////////////////////////////////////////////

MCU_Init();                                  // MCU Initialization; has to be done prior to anything else
RGB(0,0,0);                                  // Start with all LEDs off

__asm("CPSIE i");                            // Enable all Interrupts
PIT_MCR=0x00;                                // MDIS = 0,  enables timer
PIT_LDVAL1=2097152;                          // PIT Period=100ms, busclk=32.768KHz*640=20971520Hz, Period=100ms/(1/20971520Hz)=2097152 
PIT_TCTRL1 = 0x0003;                         // Enable PIT1 Timer and interrupts
NVIC_ICPR |= 1 << (PIT_irq%32);              // Clear pending PIT interrupts in NVIC register
NVIC_ISER |= 1 << (PIT_irq%32);              // Enable PIT IRQ in NVIC register

for(;;);                                     // forever loop 
7. Function Bodies
8. Interrupt Bodies
//PIT1 Interrupt Service Routine
void PIT_IRQHandler (void)
{
  PIT_TFLG1 |= PIT_TFLG_TIF_MASK;            // Clear PIT interrupt flag
  GPIOB_PTOR|=(1<<19);                       // Toggle GREEN LED
}
ENDMODULE


MODULE:CMSIS_DSP_EXAMPLE
ModuleComment=This demo uses the CMSIS DSP libraries for a few SIN and COS functions. It starts with the/equation sin^2 + cos^2 = 1. It prints the results step-by-step in a terminal window./Use Device Mgr to find the COMx port to communicate with a terminal program with a BR=115200,/8-bit,No Par,1 SB,No Flow. Tested ONLY in IAR v6.6 on 22OCT2013 with a FRDM-KL25Z Board./
1. Includes
#include <stdio.h>
#include <math.h>
#include "arm_math.h"
2. Defines
3. Global Constants
4. Global Variables
float32_t  testOutput;
float32_t  cosOutput;
float32_t  sinOutput;
float32_t  cosSquareOutput;
float32_t  sinSquareOutput;
5. Function Headers
void SCI_Init(void);
6. Main
///////////////////////////////////////////////
// IF USING IAR:                             // 
// In Projects\Options...\General Options\   //
// under the Library Configuration Tab,      // 
// check the "Use CMSIS" box and             //
// check the "DSP library" box.              //         
///////////////////////////////////////////////
MCU_Init();                                  // MCU Initialization; has to be done prior to anything else
SCI_Init();
RGB(0,0,0);                                  // Start with all LEDs off
MCU_Delay(3000);                             // Delay 3sec
printf ("This demo uses the CMSIS DSP Libraries to calcualte sin and cos angles. \nWe will start with this equation...\n\n");
MCU_Delay(3000);                             // Delay 3sec
printf ("sin^2 + cos^2 = 1 \n\n");
MCU_Delay(3000);                             // Delay 3sec
printf ("Let's begin with an angle of 30 degrees...\n\n");
MCU_Delay(3000);                             // Delay 3sec 
sinOutput = arm_sin_f32(30);
printf ("The sin(30) is %4.6f rad\n\n", sinOutput);
MCU_Delay(3000);                             // Delay 3sec  
cosOutput = arm_cos_f32(30);
printf ("The cos(30) is %4.6f rad\n\n", cosOutput);
MCU_Delay(3000);                             // Delay 3sec
arm_mult_f32(&sinOutput, &sinOutput, &sinSquareOutput, 1);
printf ("and sin^2 is %4.6f\n\n", sinSquareOutput);
MCU_Delay(3000);                             // Delay 3sec
arm_mult_f32(&cosOutput, &cosOutput, &cosSquareOutput, 1);
printf ("and cos^2 is %4.6f\n\n", cosSquareOutput);   
MCU_Delay(3000);                             // Delay 3sec
arm_add_f32(&cosSquareOutput, &sinSquareOutput, &testOutput, 1);
printf ("...so, %4.6f + %4.6f = %4.6f\n\n", sinSquareOutput, cosSquareOutput, testOutput);          
for(;;)                                      
  { 
   RGB(1,0,0);                               // Turn Red LED On
   MCU_Delay(10);                            // Delay 100ms
   RGB(0,0,0);                               // Turn Red LED Off
   MCU_Delay(10);                            // Delay 100ms
  } 

7. Function Bodies
void SCI_Init(void)          
{
  UART0_C2=0x00; 
  UART0_BDH=0x00; 
  UART0_BDL=0x22;                            // 20.97MHz/16/34=38400 baud (actually 38,550)
  UART0_C1=0x00; 
  UART0_S2=0x00;
  UART0_C3=0x00;
  UART0_C2=0x0C;  
}   
//---------------------------------------------------------------------
int putchar (int ch)
{
  UART0_MemMapPtr channel = ((UART0_MemMapPtr)0x4006A000u);
  while(!(UART0_S1_REG(channel) & UART0_S1_TDRE_MASK));
  UART0_D_REG(channel) = (uint8)ch;
  return ch;
}
8. Interrupt Bodies
ENDMODULE


MODULE:EEPROM_EMULATION
ModuleComment=This writes 4 bytes of data to an address in program flash./All the flash write commands are executed from RAM./Tested ONLY in IAR v6.6 on 22OCT2013 on a FRDM-KL25Z Board./
1. Includes
2. Defines
#define EE_Address   0x00005000
#define EE_Data      0x12345678
3. Global Constants
4. Global Variables
5. Function Headers
void FlashWrite4(uint32 mem,uint32 val);
void FlashErase1k(uint32 mem);
void FlashCmd(uint8 cmd,uint32 mem,uint32 val);
6. Main
MCU_Init();                                  // MCU Initialization; has to be done prior to anything else
RGB(0,0,0);                                  // Start with all LEDs off

FlashErase1k(EE_Address);                    // Erase 1k block of Flash at EE_Address
FlashWrite4(EE_Address, EE_Data);            // Write 4 bytes of data at EE_Address
 
for(;;)                                      // forever loop 
  { 
   RGB(1,0,0);                               // Turn Red LED On
   MCU_Delay(100);                           // Delay 100ms
   RGB(0,0,0);                               // Turn Red LED Off
   MCU_Delay(100);                           // Delay 100ms
  } 

7. Function Bodies
__ramfunc void FlashCmd(uint8 cmd,uint32 mem,uint32 val) 
{
while (!(FTFA_FSTAT&FTFA_FSTAT_CCIF_MASK)); 
if ((FTFA_FSTAT&FTFA_FSTAT_FPVIOL_MASK) || (FTFA_FSTAT&FTFA_FSTAT_ACCERR_MASK)) 
{FTFA_FSTAT|=FTFA_FSTAT_FPVIOL_MASK|FTFA_FSTAT_ACCERR_MASK;} 

FTFA_FCCOB0=cmd;              
FTFA_FCCOB1=(uint8)(mem>>16); 
FTFA_FCCOB2=(uint8)(mem>> 8); 
FTFA_FCCOB3=(uint8)(mem>> 0);
FTFA_FCCOB4=(uint8)(val>>24); 
FTFA_FCCOB5=(uint8)(val>>16); 
FTFA_FCCOB6=(uint8)(val>> 8); 
FTFA_FCCOB7=(uint8)(val>> 0);
FTFA_FSTAT|=FTFA_FSTAT_CCIF_MASK;
while (!(FTFA_FSTAT & FTFA_FSTAT_CCIF_MASK));
}
//-------------------------------------------------------------------
__ramfunc void FlashWrite4(uint32 mem,uint32 val) {FlashCmd(0x06,mem,val);}
//-------------------------------------------------------------------
__ramfunc void FlashErase1k(uint32 mem)           {FlashCmd(0x09,mem,0);}
8. Interrupt Bodies
ENDMODULE


MODULE:DMA_MODULE_REQ
ModuleComment=This uses the TSI module to show the DMA (Peripheral Request) operation. Uses DMA source/location at 0x40045004 (TSI Counter Register location),and DMA destination location/at 0x1FFFF01C (RAM location).  Touch the slider pad and watch the values change in RAM./Tested on a FRDM-KL25Z board with CW v10.5 and IAR v6.6 on 07FEB2014./ 
1. Includes
2. Defines
#define TSI_irq      26                      // TSI irq is the Vector#42 = 42-16=26
3. Global Constants
4. Global Variables
5. Function Headers
6. Main

///////////////////////////////////////////////
// IF USING IAR:                             // 
// Add additional code located in vectors.c  //
// #undef  VECTOR_042                        //
// #define VECTOR_042 TSI0_IRQHandler        //         
//                                           //      
// Add additional code located in vectors.h  //
// void TSI0_IRQHandler(void);               //                                    
///////////////////////////////////////////////

MCU_Init();                                  // MCU Initialization; has to be done prior to anything else
RGB(0,0,0);                                  // Start with all RGB LEDs off
__asm("CPSIE i");                            // Enable all Interrupts

NVIC_ICPR|=1<<(TSI_irq%32);                  // Clear pending flag for TSI in ARM NVIC Register
NVIC_ISER|=1<<(TSI_irq%32);                  // Enable TSI in ARM NVIC Register  
                                      
TSI0_GENCS |= (  TSI_GENCS_MODE(0)           // Set to TSI Cap Sense (non-noise detection) 
               | TSI_GENCS_REFCHRG(4)        // Reference osc charge/discharge current is 8uA
               | TSI_GENCS_DVOLT(0)          // Osc voltage rails set to 1.03V, Vp=1.33V, Vm=0.30V
               | TSI_GENCS_EXTCHRG(7)        // External electrode osc charge/discharge current is 64uA 
               | TSI_GENCS_PS(4)             // Electrode osc prescaler is div/16
               | TSI_GENCS_NSCN(11)          // Number of scans for each external electrode is 18 times/electrode 
               | TSI_GENCS_ESOR_MASK         // End of Scan Interrupt is allowed
              );

TSI0_GENCS |= TSI_GENCS_TSIIEN_MASK;         // Enable TSI interrupts
TSI0_DATA |= TSI_DATA_DMAEN_MASK;            // Enable DMA Transfer 
TSI0_GENCS |= TSI_GENCS_TSIEN_MASK;          // Enable TSI module
TSI0_DATA |= TSI_DATA_TSICH(10);             // Select the TSI channel 10 to be scanned

DMAMUX0_CHCFG0 = 0xB9;                       // Setup the DMAMUX channel for TSI Module (SLOT 57)

DMA_SAR0 = 0x40045004;                       // Load DMA Source Address (TSI Counter Register Location) 
DMA_DAR0 = 0x1FFFF01C;                       // Load DMA Destination Address (Location in RAM)
DMA_DCR0|=DMA_DCR_ERQ_MASK;                  // Enable TSI Peripheral Request to DMA

for(;;)                                      // forever loop 
  { 
   TSI0_DATA |= TSI_DATA_SWTS_MASK;          // Start a software trigger to scan selected (Channel 10) electrode(s)  
   DMA_DSR_BCR0|=DMA_DSR_BCR_BCR(4);         // Re-load Number of Bytes to be transferred after TSI DMA request event 
  } 

7. Function Bodies
8. Interrupt Bodies
void TSI0_IRQHandler (void){}
ENDMODULE


MODULE:DMA_MAN_START
ModuleComment=This uses the TSI module to show the DMA (Manual Start Bit) operation. Uses DMA source/location at 0x40045004 (TSI Counter Register location),and DMA destination location/at 0x1FFFF01C (RAM location).  Touch the slider pad and watch the values change in RAM./Tested on a FRDM-KL25Z board with CW v10.5 and IAR v6.7.03 on 14FEB2014./ 
1. Includes
2. Defines
#define TSI_irq      26                      // TSI irq is the Vector#42 = 42-16=26
3. Global Constants
4. Global Variables
5. Function Headers
6. Main

///////////////////////////////////////////////
// IF USING IAR:                             // 
// Add additional code located in vectors.c  //
// #undef  VECTOR_042                        //
// #define VECTOR_042 TSI0_IRQHandler        //         
//                                           //      
// Add additional code located in vectors.h  //
// void TSI0_IRQHandler(void);               //                                    
///////////////////////////////////////////////

MCU_Init();                                  // MCU Initialisation; has to be done prior to anything else
RGB(0,0,0);                                  // Start with all RGB LEDs off

NVIC_ICPR|=1<<(TSI_irq%32);                  // Clear pending flag for TSI in ARM NVIC Register
NVIC_ISER|=1<<(TSI_irq%32);                  // Enable TSI in ARM NVIC Register  
                                      
TSI0_GENCS |= (  TSI_GENCS_MODE(0)           // Set to TSI Cap Sense (non-noise detection) 
               | TSI_GENCS_REFCHRG(4)        // Reference osc charge/discharge current is 8uA
               | TSI_GENCS_DVOLT(0)          // Osc voltage rails set to 1.03V, Vp=1.33V, Vm=0.30V
               | TSI_GENCS_EXTCHRG(7)        // External electrode osc charge/discharge current is 64uA 
               | TSI_GENCS_PS(4)             // Electrode osc prescaler is div/16
               | TSI_GENCS_NSCN(11)          // Number of scans for each external electrode is 18 times/electrode 
               | TSI_GENCS_ESOR_MASK         // End of Scan Interrupt is allowed
              );

TSI0_DATA |= TSI_DATA_DMAEN_MASK;            // Enable DMA Transfer 
TSI0_GENCS |= TSI_GENCS_TSIEN_MASK;          // Enable TSI module

DMA_SAR0 = 0x40045004;                       // Load Source Address
DMA_DAR0 = 0x1FFFF01C;                       // Load Destination Address
DMA_DSR_BCR0|=DMA_DSR_BCR_BCR(4);            // Number of Bytes to be transferred 
DMA_DCR0|=DMA_DCR_START_MASK;                // Software start the DMA transfer

for(;;)                                      // forever loop 
 { 
  TSI0_DATA |= TSI_DATA_TSICH(10);           // Select the TSI channel 10 to be scanned
  TSI0_DATA |= TSI_DATA_SWTS_MASK;           // Start a software trigger to scan selected electrode(s)  
  while (!(TSI0_GENCS&TSI_GENCS_EOSF_MASK)); // Wait for electrode scan to complete 
  TSI0_GENCS |= TSI_GENCS_EOSF_MASK;         // Clear End of Scan Flag
  while (!(DMA_DSR_BCR0&DMA_DSR_BCR_DONE_MASK));  //wait for DMA transfer to complete
  DMA_DSR_BCR0|=DMA_DSR_BCR_DONE_MASK;       // Clear TRANSFER DONE flag 
  DMA_DSR_BCR0|=DMA_DSR_BCR_BCR(4);          // Re-Load the Number of Bytes to be transferred 
  DMA_DCR0|=DMA_DCR_START_MASK;              // software start the DMA transfer again
 } 

7. Function Bodies
8. Interrupt Bodies
void TSI0_IRQHandler (void){}
ENDMODULE


MODULE:LOWPWR_WAIT
ModuleComment=MCU Enters a Low Power Mode - WAIT. The GREEN LED will blink/indicating the MCU wakes up and returns to WAIT mode. Measure MCU current/on J4 on a FRDM-KL25Z board. When running Low Power Modes, please disconnect and reconnect/USB cable to FRDM-KL25Z board. Tested with CW v10.5 and IAR v6.6 on 01NOV2013./
1. Includes
2. Defines
3. Global Constants
volatile unsigned int dummyread;
4. Global Variables
5. Function Headers
6. Main
///////////////////////////////////////////////
// Add additional code located in vectors.c  //
// #undef  VECTOR_044                        //
// #define VECTOR_044 LPTimer_IRQHandler     //
//                                           //
// Add additional code located in vectors.h  //
// void LPTimer_IRQHandler(void);            //
///////////////////////////////////////////////

SIM_COPC=0x00;                                                                  // Disable COP watchdog

__asm("CPSIE i");                                                               // Enable all Interrupts
 
SIM_SCGC5|=SIM_SCGC5_PORTB_MASK;                                                // Enable PortB clock gate for GPIO
SIM_SCGC5|=SIM_SCGC5_LPTMR_MASK;                                                // Enable LPTMR module
PORTB_PCR19=PORT_PCR_MUX(1);                                                    // Set Pin B19 to GPIO function   
GPIOB_PDOR|=(1<<19);                                                            // Set Pin B19 data to high
GPIOB_PDDR|=(1<<19);                                                            // Set Pin B19 to output
 
// Set up LPTMR to wake up MCU
LPTMR0_PSR=(LPTMR_PSR_PBYP_MASK|LPTMR_PSR_PCS(0x1));                            // LPO feeds LPT, no prescaler, enable LPO, 0x00000005
LPTMR0_CMR=LPTMR_CMR_COMPARE(1000);                                             // Set compare value in ms
LPTMR0_CSR=(LPTMR_CSR_TIE_MASK);                                                // LPT interrupt enable 0x00000041
dummyread=LPTMR0_CSR;                                                           // Wait for LPT to write values
NVIC_ICPR|=1<<(28%32);                                                          // Clear pending flag for LPTMR in ARM NVIC Register
NVIC_ISER|=1<<(28%32);                                                          // Enable LPTMR in ARM NVIC Register          
LPTMR0_CSR|=LPTMR_CSR_TEN_MASK;                                                 // Turn on LPTimer and start counting

for(;;)
    {
      GPIOB_PTOR|=(1<<19);                                                      // Toggle GREEN to show wakeup event 
      __asm("WFI");                                                             // Execute Stop command for WAIT mode
    }  
7. Function Bodies
8. Interrupt Bodies
void LPTimer_IRQHandler(void)
{
  LPTMR0_CSR|=LPTMR_CSR_TCF_MASK;                                               // write 1 to TCF to clear the LPT timer compare flag
  dummyread=LPTMR0_CSR;                                                         // wait for read of register before returning from ISR
}
ENDMODULE


MODULE:LOWPWR_STOP
ModuleComment=MCU Enters a Low Power Mode - STOP. The GREEN LED will blink/indicating the MCU wakes up and returns to STOP mode. Measure MCU current/on J4 on a FRDM-KL25Z board. When running Low Power Modes, please disconnect and reconnect/USB cable to FRDM-KL25Z board. Tested with CW v10.5 and IAR v6.6 on 01NOV2013./
1. Includes
2. Defines
3. Global Constants
volatile unsigned int dummyread;
4. Global Variables
5. Function Headers
6. Main
///////////////////////////////////////////////
// Add additional code located in vectors.c  //
// #undef  VECTOR_044                        //
// #define VECTOR_044 LPTimer_IRQHandler     //
//                                           //
// Add additional code located in vectors.h  //
// void LPTimer_IRQHandler(void);            //
///////////////////////////////////////////////

SIM_COPC=0x00;                                                                  // Disable COP watchdog

__asm("CPSIE i");                                                               // Enable all Interrupts
 
SIM_SCGC5|=SIM_SCGC5_PORTB_MASK;                                                // Enable PortB clock gate for GPIO
SIM_SCGC5|=SIM_SCGC5_LPTMR_MASK;                                                // Enable LPTMR module
PORTB_PCR19=PORT_PCR_MUX(1);                                                    // Set Pin B19 to GPIO function   
GPIOB_PDOR|=(1<<19);                                                            // Set Pin B19 data to high
GPIOB_PDDR|=(1<<19);                                                            // Set Pin B19 to output
 
// Set up LPTMR to wake up MCU
LPTMR0_PSR=(LPTMR_PSR_PBYP_MASK|LPTMR_PSR_PCS(0x1));                            // LPO feeds LPT, no prescaler, enable LPO, 0x00000005
LPTMR0_CMR=LPTMR_CMR_COMPARE(1000);                                             // Set compare value in ms
LPTMR0_CSR=(LPTMR_CSR_TIE_MASK);                                                // LPT interrupt enable 0x00000041
dummyread=LPTMR0_CSR;                                                           // Wait for LPT to write values
NVIC_ICPR|=1<<(28%32);                                                          // Clear pending flag for LPTMR in ARM NVIC Register
NVIC_ISER|=1<<(28%32);                                                          // Enable LPTMR in ARM NVIC Register          
LPTMR0_CSR|=LPTMR_CSR_TEN_MASK;                                                 // Turn on LPTimer and start counting

for(;;)
    {
      GPIOB_PTOR|=(1<<19);                                                      // Toggle GREEN to show wakeup event 
      SCB_SCR|=SCB_SCR_SLEEPDEEP_MASK;                                          // Enable ARM deep sleep modes
      __asm("WFI");                                                             // Execute Stop command for WAIT mode
    }  
7. Function Bodies
8. Interrupt Bodies
void LPTimer_IRQHandler(void)
{
  LPTMR0_CSR|=LPTMR_CSR_TCF_MASK;                                               // write 1 to TCF to clear the LPT timer compare flag
  dummyread=LPTMR0_CSR;                                                         // wait for read of register before returning from ISR
}
ENDMODULE


MODULE:LOWPWR_VLPS
ModuleComment=MCU Enters a Low Power Mode - VLPS.  The GREEN LED will blink/indicating the MCU wakes up and returns to VLPS mode. Measure MCU current/on J4 on a FRDM-KL25Z board. When running Low Power Modes, please disconnect and reconnect/USB cable to FRDM-KL25Z board. Tested with CW v10.5 and IAR v6.6 on 01NOV2013./
1. Includes
2. Defines
3. Global Constants
volatile unsigned int dummyread;
4. Global Variables
5. Function Headers
6. Main
///////////////////////////////////////////////
// Add additional code located in vectors.c  //
// #undef  VECTOR_044                        //
// #define VECTOR_044 LPTimer_IRQHandler     //
//                                           //
// Add additional code located in vectors.h  //
// void LPTimer_IRQHandler(void);            //
///////////////////////////////////////////////

SIM_COPC=0x00;                                                                  // Disable COP watchdog

__asm("CPSIE i");                                                               // Enable all Interrupts
 
SIM_SCGC5|=SIM_SCGC5_PORTB_MASK;                                                // Enable PortB clock gate for GPIO
SIM_SCGC5|=SIM_SCGC5_LPTMR_MASK;                                                // Enable LPTMR module
PORTB_PCR19=PORT_PCR_MUX(1);                                                    // Set Pin B19 to GPIO function   
GPIOB_PDOR|=(1<<19);                                                            // Set Pin B19 data to high
GPIOB_PDDR|=(1<<19);                                                            // Set Pin B19 to output
 
// Set up LPTMR to wake up MCU
LPTMR0_PSR=(LPTMR_PSR_PBYP_MASK|LPTMR_PSR_PCS(0x1));                            // LPO feeds LPTimer, no prescaler, enable LPO
LPTMR0_CMR=LPTMR_CMR_COMPARE(1000);                                             // Set compare value in ms
LPTMR0_CSR=(LPTMR_CSR_TIE_MASK);                                                // LPT interrupt enable
dummyread=LPTMR0_CSR;                                                           // Wait for LPT to write values
NVIC_ICPR|=1<<(28%32);                                                          // Clear pending flag for LPTMR in ARM NVIC Register
NVIC_ISER|=1<<(28%32);                                                          // Enable LPTMR in ARM NVIC Register          
LPTMR0_CSR|=LPTMR_CSR_TEN_MASK;                                                 // Turn on LPTimer and start counting

// Configure the Low Power Modes
SMC_PMPROT=SMC_PMPROT_AVLP_MASK;                                                // Allow Low Leakage Power Modes (VLPR,VLPW,VLPS,LLS)
SMC_PMCTRL=SMC_PMCTRL_STOPM(0x2);                                               // Run and Stop Mode Control (RUN,VLPR,VLPS,LLS,VLLSx)  
dummyread=SMC_PMCTRL;                                                           // Give time for PMCTRL register to write
MCG_C6&=~MCG_C6_CME0_MASK;                                                      // Turn off Clock Monitor

for(;;)
    {
      GPIOB_PTOR|=(1<<19);                                                      // Toggle GREEN to show wakeup event 
      SCB_SCR|=SCB_SCR_SLEEPDEEP_MASK;                                          // Enable ARM deep sleep modes
      __asm("WFI");                                                             // Execute Stop command
    }  
7. Function Bodies
8. Interrupt Bodies
void LPTimer_IRQHandler(void)
{
  LPTMR0_CSR|=LPTMR_CSR_TCF_MASK;                                               // write 1 to TCF to clear the LPT timer compare flag
  dummyread=LPTMR0_CSR;                                                         // wait for read of register before returning from ISR
}
ENDMODULE


MODULE:LOWPWR_LLS
ModuleComment=MCU Enters a Low Power Mode - LLS.  The GREEN LED will blink/indicating the MCU wakes up and returns to LLS mode. Measure MCU current/on J4 on a FRDM-KL25Z board. When running Low Power Modes, please disconnect and reconnect/USB cable to FRDM-KL25Z board. Tested with CW v10.5 and IAR v6.6 on 01NOV2013./
1. Includes
2. Defines
3. Global Constants
volatile unsigned int dummyread;
4. Global Variables
5. Function Headers
6. Main
///////////////////////////////////////////////
// Add additional code located in vectors.c  //
// #undef  VECTOR_044                        //
// #define VECTOR_044 LPTimer_IRQHandler     //
//                                           //
// Add additional code located in vectors.h  //
// void LPTimer_IRQHandler(void);            //
///////////////////////////////////////////////

SIM_COPC=0x00;                                                                  // Disable COP watchdog

__asm("CPSIE i");                                                               // Enable all Interrupts
 
SIM_SCGC5|=SIM_SCGC5_PORTB_MASK;                                                // Enable PortB clock gate for GPIO
SIM_SCGC5|=SIM_SCGC5_LPTMR_MASK;                                                // Enable LPTMR module
SIM_SCGC4|=0x10000000;                                                          // Enable LLWU clock
PORTB_PCR19=PORT_PCR_MUX(1);                                                    // Set Pin B19 to GPIO function   
GPIOB_PDOR|=(1<<19);                                                            // Set Pin B19 data to high
GPIOB_PDDR|=(1<<19);                                                            // Set Pin B19 to output
 
// Set up LPTMR to wake up MCU
LPTMR0_PSR=(LPTMR_PSR_PBYP_MASK|LPTMR_PSR_PCS(0x1));                            // LPO feeds LPTimer, no prescaler, enable LPO
LPTMR0_CMR=LPTMR_CMR_COMPARE(1000);                                             // Set compare value in ms
LPTMR0_CSR=(LPTMR_CSR_TIE_MASK);                                                // LPT interrupt enable
dummyread=LPTMR0_CSR;                                                           // Wait for LPT to write values
NVIC_ICPR|=1<<(28%32);                                                          // Clear pending flag for LPTMR in ARM NVIC Register
NVIC_ISER|=1<<(28%32);                                                          // Enable LPTMR in ARM NVIC Register          
LPTMR0_CSR|=LPTMR_CSR_TEN_MASK;                                                 // Turn on LPTimer and start counting

// Configure the Low Power Modes
SMC_PMPROT=SMC_PMPROT_ALLS_MASK;                                                // Allow Low Leakage Power Modes (VLPR,VLPW,VLPS,LLS)
SMC_PMCTRL=SMC_PMCTRL_STOPM(0x3);                                               // Run and Stop Mode Control (RUN,VLPR,VLPS,LLS,VLLSx)  
dummyread=SMC_PMCTRL;                                                           // Give time for PMCTRL register to write
MCG_C6&=~MCG_C6_CME0_MASK;                                                      // Turn off Clock Monitor

// Need to enable a wake up source also
LLWU_ME|=LLWU_ME_WUME0_MASK;                                                    // Enable wakeup Modeule 0, which is the LPTMR

for(;;)
    {
      GPIOB_PTOR|=(1<<19);                                                      // Toggle GREEN LED to show wakeup event 
      SCB_SCR|=SCB_SCR_SLEEPDEEP_MASK;                                          // Enable ARM deep sleep modes
      __asm("WFI");                                                             // Execute Stop command
    }  
7. Function Bodies
8. Interrupt Bodies
void LPTimer_IRQHandler(void)
{
  LPTMR0_CSR|=LPTMR_CSR_TCF_MASK;                                               // write 1 to TCF to clear the LPT timer compare flag
  dummyread=LPTMR0_CSR;                                                         // wait for read of register before returning from ISR
}
ENDMODULE


MODULE:LOWPWR_VLLS3
ModuleComment=MCU Enters a Low Power Mode - VLLS3.  The GREEN LED will blink/indicating the MCU wakes up and returns to VLLS3 mode. Measure MCU current/on J4 on a FRDM-KL25Z board. When running Low Power Modes, please disconnect and reconnect/USB cable to FRDM-KL25Z board. Tested with CW v10.5 and IAR v6.6 on 03NOV2013./
1. Includes
2. Defines
3. Global Constants
volatile unsigned int dummyread;
4. Global Variables
long i;
5. Function Headers
6. Main
///////////////////////////////////////////////
// Add additional code located in vectors.c  //
// #undef  VECTOR_044                        //
// #define VECTOR_044 LPTimer_IRQHandler     //
//                                           //
// Add additional code located in vectors.h  //
// void LPTimer_IRQHandler(void);            //
///////////////////////////////////////////////

SIM_COPC=0x00;                                                                  // Disable COP watchdog

if (PMC_REGSC&PMC_REGSC_ACKISO_MASK)
    {
     PMC_REGSC|=PMC_REGSC_ACKISO_MASK;
    }

__asm("CPSIE i");                                                               // Enable all Interrupts
 
SIM_SCGC5|=SIM_SCGC5_PORTB_MASK;                                                // Enable PortB clock gate for GPIO
SIM_SCGC5|=SIM_SCGC5_LPTMR_MASK;                                                // Enable LPTMR module
SIM_SCGC4|=0x10000000;                                                          // Enable LLWU clock
PORTB_PCR19=PORT_PCR_MUX(1);                                                    // Set Pin B19 to GPIO function   
GPIOB_PDOR|=(1<<19);                                                            // Set Pin B19 data to high
GPIOB_PDDR|=(1<<19);                                                            // Set Pin B19 to output
 
// Set up LPTMR to wake up MCU
LPTMR0_PSR=(LPTMR_PSR_PBYP_MASK|LPTMR_PSR_PCS(0x1));                            // LPO feeds LPTimer, no prescaler, enable LPO
LPTMR0_CMR=LPTMR_CMR_COMPARE(2000);                                             // Set compare value in ms
LPTMR0_CSR=(LPTMR_CSR_TIE_MASK);                                                // LPT interrupt enable
dummyread=LPTMR0_CSR;                                                           // Wait for LPT to write values
NVIC_ICPR|=1<<(28%32);                                                          // Clear pending flag for LPTMR in ARM NVIC Register
NVIC_ISER|=1<<(28%32);                                                          // Enable LPTMR in ARM NVIC Register          
LPTMR0_CSR|=LPTMR_CSR_TEN_MASK;                                                 // Turn on LPTimer and start counting

// Configure the Low Power Modes
SMC_PMPROT=SMC_PMPROT_AVLLS_MASK;                                               // Allow Low Leakage Power Modes (VLPR,VLPW,VLPS,LLS)
SMC_PMCTRL=SMC_PMCTRL_STOPM(0x4);                                               // Run and Stop Mode Control (RUN,VLPR,VLPS,LLS,VLLSx) 
SMC_STOPCTRL=SMC_STOPCTRL_VLLSM(3);                                             // Very Low Leakage Stop Mode Control (VLLS3,VLLS1,VLLS0) 
dummyread=SMC_PMCTRL;                                                           // Give time for PMCTRL register to write
dummyread=SMC_STOPCTRL;                                                         // Give time for STOPCTRL register to write
MCG_C6&=~MCG_C6_CME0_MASK;                                                      // Turn off Clock Monitor

// Need to enable a wake up source also
LLWU_ME|=LLWU_ME_WUME0_MASK;                                                    // Enable wakeup Modeule 0, which is the LPTMR

for(;;)
    {
      GPIOB_PCOR|=(1<<19);                                                      // Turn ON GREEN LED to show wakeup event 
      for (i=0;i<50000;i++);                                                    // Small Delay to show LED pulse
      GPIOB_PSOR|=(1<<19);                                                      // Turn OFF GREEN LED 
      SCB_SCR|=SCB_SCR_SLEEPDEEP_MASK;                                          // Enable ARM deep sleep modes
      __asm("WFI");                                                             // Execute Stop command
    }  
7. Function Bodies
8. Interrupt Bodies
void LPTimer_IRQHandler(void)
{
  LPTMR0_CSR|=LPTMR_CSR_TCF_MASK;                                               // write 1 to TCF to clear the LPT timer compare flag
  dummyread=LPTMR0_CSR;                                                         // wait for read of register before returning from ISR
}
ENDMODULE


MODULE:LOWPWR_VLLS1
ModuleComment=MCU Enters a Low Power Mode - VLLS1.  The GREEN LED will blink/indicating the MCU wakes up and returns to VLLS1 mode. Measure MCU current/on J4 on a FRDM-KL25Z board. When running Low Power Modes, please disconnect and reconnect/USB cable to FRDM-KL25Z board. Tested with CW v10.5 and IAR v6.6 on 03NOV2013./
1. Includes
2. Defines
3. Global Constants
volatile unsigned int dummyread;
4. Global Variables
long i;
5. Function Headers
6. Main
///////////////////////////////////////////////
// Add additional code located in vectors.c  //
// #undef  VECTOR_044                        //
// #define VECTOR_044 LPTimer_IRQHandler     //
//                                           //
// Add additional code located in vectors.h  //
// void LPTimer_IRQHandler(void);            //
///////////////////////////////////////////////

SIM_COPC=0x00;                                                                  // Disable COP watchdog

if (PMC_REGSC&PMC_REGSC_ACKISO_MASK)
    {
     PMC_REGSC|=PMC_REGSC_ACKISO_MASK;
    }

__asm("CPSIE i");                                                               // Enable all Interrupts
 
SIM_SCGC5|=SIM_SCGC5_PORTB_MASK;                                                // Enable PortB clock gate for GPIO
SIM_SCGC5|=SIM_SCGC5_LPTMR_MASK;                                                // Enable LPTMR module
SIM_SCGC4|=0x10000000;                                                          // Enable LLWU clock
PORTB_PCR19=PORT_PCR_MUX(1);                                                    // Set Pin B19 to GPIO function   
GPIOB_PDOR|=(1<<19);                                                            // Set Pin B19 data to high
GPIOB_PDDR|=(1<<19);                                                            // Set Pin B19 to output
 
// Set up LPTMR to wake up MCU
LPTMR0_PSR=(LPTMR_PSR_PBYP_MASK|LPTMR_PSR_PCS(0x1));                            // LPO feeds LPTimer, no prescaler, enable LPO
LPTMR0_CMR=LPTMR_CMR_COMPARE(2000);                                             // Set compare value in ms
LPTMR0_CSR=(LPTMR_CSR_TIE_MASK);                                                // LPT interrupt enable
dummyread=LPTMR0_CSR;                                                           // Wait for LPT to write values
NVIC_ICPR|=1<<(28%32);                                                          // Clear pending flag for LPTMR in ARM NVIC Register
NVIC_ISER|=1<<(28%32);                                                          // Enable LPTMR in ARM NVIC Register          
LPTMR0_CSR|=LPTMR_CSR_TEN_MASK;                                                 // Turn on LPTimer and start counting

// Configure the Low Power Modes
SMC_PMPROT=SMC_PMPROT_AVLLS_MASK;                                               // Allow Low Leakage Power Modes (VLPR,VLPW,VLPS,LLS)
SMC_PMCTRL=SMC_PMCTRL_STOPM(0x4);                                               // Run and Stop Mode Control (RUN,VLPR,VLPS,LLS,VLLSx) 
SMC_STOPCTRL=SMC_STOPCTRL_VLLSM(1);                                             // Very Low Leakage Stop Mode Control (VLLS3,VLLS1,VLLS0) 
dummyread=SMC_PMCTRL;                                                           // Give time for PMCTRL register to write
dummyread=SMC_STOPCTRL;                                                         // Give time for STOPCTRL register to write
MCG_C6&=~MCG_C6_CME0_MASK;                                                      // Turn off Clock Monitor

// Need to enable a wake up source also
LLWU_ME|=LLWU_ME_WUME0_MASK;                                                    // Enable wakeup Modeule 0, which is the LPTMR

for(;;)
    {
      GPIOB_PCOR|=(1<<19);                                                      // Turn ON GREEN LED to show wakeup event 
      for (i=0;i<50000;i++);                                                    // Small Delay to show LED pulse
      GPIOB_PSOR|=(1<<19);                                                      // Turn OFF GREEN LED 
      SCB_SCR|=SCB_SCR_SLEEPDEEP_MASK;                                          // Enable ARM deep sleep modes
      __asm("WFI");                                                             // Execute Stop command
    }  
7. Function Bodies
8. Interrupt Bodies
void LPTimer_IRQHandler(void)
{
  LPTMR0_CSR|=LPTMR_CSR_TCF_MASK;                                               // write 1 to TCF to clear the LPT timer compare flag
  dummyread=LPTMR0_CSR;                                                         // wait for read of register before returning from ISR
}
ENDMODULE


MODULE:LOWPWR_VLLS0_POR
ModuleComment=MCU Enters a Low Power Mode - VLLS0.  The GREEN LED will light for 3 seconds indicating the/MCU is in full run mode. MCU will then enter VLLS0 mode, with POR enabled. Measure current/on J4 on a FRDM-KL25Z board. When running Low Power Modes, please disconnect and reconnect/USB cable to FRDM-KL25Z board. Tested with CW v10.5 and IAR v6.6 on 03NOV2013./
1. Includes
2. Defines
3. Global Constants
volatile unsigned int dummyread;
4. Global Variables
long i;
5. Function Headers
6. Main
///////////////////////////////////////////////
// Add additional code located in vectors.c  //
// #undef  VECTOR_044                        //
// #define VECTOR_044 LPTimer_IRQHandler     //
//                                           //
// Add additional code located in vectors.h  //
// void LPTimer_IRQHandler(void);            //
///////////////////////////////////////////////

SIM_COPC=0x00;                                                                  // Disable COP watchdog

if (PMC_REGSC&PMC_REGSC_ACKISO_MASK)
    {
     PMC_REGSC|=PMC_REGSC_ACKISO_MASK;
    }

__asm("CPSIE i");                                                               // Enable all Interrupts
 
SIM_SCGC5|=SIM_SCGC5_PORTB_MASK;                                                // Enable PortB clock gate for GPIO
SIM_SCGC5|=SIM_SCGC5_LPTMR_MASK;                                                // Enable LPTMR module
SIM_SCGC4|=0x10000000;                                                          // Enable LLWU clock
PORTB_PCR19=PORT_PCR_MUX(1);                                                    // Set Pin B19 to GPIO function   
GPIOB_PDOR|=(1<<19);                                                            // Set Pin B19 data to high
GPIOB_PDDR|=(1<<19);                                                            // Set Pin B19 to output
 
// Set up LPTMR to wake up MCU
LPTMR0_PSR=(LPTMR_PSR_PBYP_MASK|LPTMR_PSR_PCS(0x1));                            // LPO feeds LPTimer, no prescaler, enable LPO
LPTMR0_CMR=LPTMR_CMR_COMPARE(2000);                                             // Set compare value in ms
LPTMR0_CSR=(LPTMR_CSR_TIE_MASK);                                                // LPT interrupt enable
dummyread=LPTMR0_CSR;                                                           // Wait for LPT to write values
NVIC_ICPR|=1<<(28%32);                                                          // Clear pending flag for LPTMR in ARM NVIC Register
NVIC_ISER|=1<<(28%32);                                                          // Enable LPTMR in ARM NVIC Register          
LPTMR0_CSR|=LPTMR_CSR_TEN_MASK;                                                 // Turn on LPTimer and start counting

// Configure the Low Power Modes
SMC_PMPROT=SMC_PMPROT_AVLLS_MASK;                                               // Allow Low Leakage Power Modes (VLPR,VLPW,VLPS,LLS)
SMC_PMCTRL=SMC_PMCTRL_STOPM(0x4);                                               // Run and Stop Mode Control (RUN,VLPR,VLPS,LLS,VLLSx) 
SMC_STOPCTRL=SMC_STOPCTRL_VLLSM(0);                                             // Very Low Leakage Stop Mode Control (VLLS3,VLLS1,VLLS0), POR Enabled 
dummyread=SMC_PMCTRL;                                                           // Give time for PMCTRL register to write
dummyread=SMC_STOPCTRL;                                                         // Give time for STOPCTRL register to write
MCG_C6&=~MCG_C6_CME0_MASK;                                                      // Turn off Clock Monitor

// Need to enable a wake up source also
LLWU_ME|=LLWU_ME_WUME0_MASK;                                                    // Enable wakeup Modeule 0, which is the LPTMR

GPIOB_PCOR|=(1<<19);                                                            // Turn ON GREEN LED to show run mode 
for (i=0;i<5000000;i++);                                                        // 3 sec delay to show run mode
GPIOB_PSOR|=(1<<19);                                                            // Turn OFF GREEN LED                                                    

for(;;)
    {
      SCB_SCR|=SCB_SCR_SLEEPDEEP_MASK;                                          // Enable ARM deep sleep modes
      __asm("WFI");                                                             // Execute Stop command
    }  
7. Function Bodies
8. Interrupt Bodies
void LPTimer_IRQHandler(void)
{
  LPTMR0_CSR|=LPTMR_CSR_TCF_MASK;                                               // write 1 to TCF to clear the LPT timer compare flag
  dummyread=LPTMR0_CSR;                                                         // wait for read of register before returning from ISR
}
ENDMODULE


MODULE:LOWPWR_VLLS0
ModuleComment=MCU Enters a Low Power Mode - VLLS0.  The GREEN LED will light for 3 seconds indicating the/MCU is in full run mode. MCU will then enter VLLS0 mode, with POR disabled. Measure current/on J4 on a FRDM-KL25Z board. When running Low Power Modes, please disconnect and reconnect/USB cable to FRDM-KL25Z board. Tested with CW v10.5 and IAR v6.6 on 03NOV2013./
1. Includes
2. Defines
3. Global Constants
volatile unsigned int dummyread;
4. Global Variables
long i;
5. Function Headers
6. Main
///////////////////////////////////////////////
// Add additional code located in vectors.c  //
// #undef  VECTOR_044                        //
// #define VECTOR_044 LPTimer_IRQHandler     //
//                                           //
// Add additional code located in vectors.h  //
// void LPTimer_IRQHandler(void);            //
///////////////////////////////////////////////

SIM_COPC=0x00;                                                                  // Disable COP watchdog

if (PMC_REGSC&PMC_REGSC_ACKISO_MASK)
    {
     PMC_REGSC|=PMC_REGSC_ACKISO_MASK;
    }

__asm("CPSIE i");                                                               // Enable all Interrupts
 
SIM_SCGC5|=SIM_SCGC5_PORTB_MASK;                                                // Enable PortB clock gate for GPIO
SIM_SCGC5|=SIM_SCGC5_LPTMR_MASK;                                                // Enable LPTMR module
SIM_SCGC4|=0x10000000;                                                          // Enable LLWU clock
PORTB_PCR19=PORT_PCR_MUX(1);                                                    // Set Pin B19 to GPIO function   
GPIOB_PDOR|=(1<<19);                                                            // Set Pin B19 data to high
GPIOB_PDDR|=(1<<19);                                                            // Set Pin B19 to output
 
// Set up LPTMR to wake up MCU
LPTMR0_PSR=(LPTMR_PSR_PBYP_MASK|LPTMR_PSR_PCS(0x1));                            // LPO feeds LPTimer, no prescaler, enable LPO
LPTMR0_CMR=LPTMR_CMR_COMPARE(2000);                                             // Set compare value in ms
LPTMR0_CSR=(LPTMR_CSR_TIE_MASK);                                                // LPT interrupt enable
dummyread=LPTMR0_CSR;                                                           // Wait for LPT to write values
NVIC_ICPR|=1<<(28%32);                                                          // Clear pending flag for LPTMR in ARM NVIC Register
NVIC_ISER|=1<<(28%32);                                                          // Enable LPTMR in ARM NVIC Register          
LPTMR0_CSR|=LPTMR_CSR_TEN_MASK;                                                 // Turn on LPTimer and start counting

// Configure the Low Power Modes
SMC_PMPROT=SMC_PMPROT_AVLLS_MASK;                                               // Allow Low Leakage Power Modes (VLPR,VLPW,VLPS,LLS)
SMC_PMCTRL=SMC_PMCTRL_STOPM(0x4);                                               // Run and Stop Mode Control (RUN,VLPR,VLPS,LLS,VLLSx) 
SMC_STOPCTRL=SMC_STOPCTRL_VLLSM(0)|SMC_STOPCTRL_PORPO_MASK;                     // Very Low Leakage Stop Mode Control (VLLS3,VLLS1,VLLS0), NO POR Enabled
dummyread=SMC_PMCTRL;                                                           // Give time for PMCTRL register to write
dummyread=SMC_STOPCTRL;                                                         // Give time for STOPCTRL register to write
MCG_C6&=~MCG_C6_CME0_MASK;                                                      // Turn off Clock Monitor

// Need to enable a wake up source also
LLWU_ME|=LLWU_ME_WUME0_MASK;                                                    // Enable wakeup Modeule 0, which is the LPTMR

GPIOB_PCOR|=(1<<19);                                                            // Turn ON GREEN LED to show run mode 
for (i=0;i<5000000;i++);                                                        // 3 sec delay to show run mode
GPIOB_PSOR|=(1<<19);                                                            // Turn OFF GREEN LED                                                    

for(;;)
    {
      SCB_SCR|=SCB_SCR_SLEEPDEEP_MASK;                                          // Enable ARM deep sleep modes
      __asm("WFI");                                                             // Execute Stop command
    }  
7. Function Bodies
8. Interrupt Bodies
void LPTimer_IRQHandler(void)
{
  LPTMR0_CSR|=LPTMR_CSR_TCF_MASK;                                               // write 1 to TCF to clear the LPT timer compare flag
  dummyread=LPTMR0_CSR;                                                         // wait for read of register before returning from ISR
}
ENDMODULE
